{
    "defaultAudio": "D:/Vidya/PPC3/PPC3_Audio_testing_Automation/audio_files/input_audio/sinewave.wav",
    "testCases": [{
        "id": "crossover_01",
        "wooferSplData": "D:/Vidya/PPC3/PPC3_Audio_testing_Automation/resources/splFiles/woofer spl.txt",
        "woofer": {
            "biquads": {
                "1": {
                    "switch": "off"
                },
                "3": {
                    "filterType": "Bass Shelf",
                    "frequency": "45",
                    "gain": "-20"
                }
            }
        },
        "tweeter": {
            "biquads": {
                "5": {
                    "gain": "-20"
                }
            }
        },
        "advancedSettings": {
            "woofer": {
                "delay": "50"
            },
            "tweeter": {
                "gang": false,
                "delay (L)": "10",
                "delay (R)": "10",
                "invertPhase": "true"
            },
            "smoothFactor": "1/2",
            "splOffset": "6",
            "splineRegion": "413-823"
        }
    }, {
        "id": "crossover_02",
        "tweeterSplData": "D:/Vidya/PPC3/PPC3_Audio_testing_Automation/resources/splFiles/woofer spl.txt",
        "advancedSettings": {
            "woofer": {
                "delay": "50"
            },
            "tweeter": {
                "gang": true,
                "delay": "10",
                "invertPhase": "true"
            },
            "smoothFactor": "1",
            "splOffset": "6",
            "splineRegion": "423-823"
        }
    }]
}